INDEX VERSION 1.131+C:\Users\Skulcrushr\Desktop\hexaware\timesheet\.metadata\.plugins\org.eclipse.jdt.core
3193780734.index
1798766281.index
1525474610.index
2753258922.index
2683139525.index
1151503302.index
3651455042.index
3633435445.index
3210681910.index
2624178754.index
2549542306.index
3140341308.index
3682312529.index
931386719.index
1769700349.index
1563846817.index
3418401275.index
4090149077.index
2709562127.index
3092974529.index
2252855985.index
